<?xml version="1.0" encoding="UTF-8"?>
<DataFileEntity>
   <description></description>
   <name>InvalidDataLogin</name>
   <tag></tag>
   <containsHeaders>true</containsHeaders>
   <csvSeperator></csvSeperator>
   <dataFileGUID>0f272a52-0a7d-4cc8-bcd6-815dbe8f60bc</dataFileGUID>
   <dataSourceUrl>Data Files/DataLogin.xlsx</dataSourceUrl>
   <driver>ExcelFile</driver>
   <isInternalPath>true</isInternalPath>
   <query></query>
   <secureUserAccount>false</secureUserAccount>
   <sheetName>InvalidLoginData</sheetName>
   <usingGlobalDBSetting>false</usingGlobalDBSetting>
</DataFileEntity>
